Introduction to R
…
Group By

Grouping is a powerful operation for data manipulation. Sometimes you want information about an entire group, for example maybe we want the average horsepower across cylinders. To do that, we first group the dataset by number of cylinders, then use the mutate function to calculate average horsepower for each group, and then ungroup and go on with our day.

ungroup(mutate(group_by(mtcars, cyl), hp_average = mean(hp)))

# A tibble: 32 × 12
     mpg   cyl  disp    hp  drat    wt  qsec    vs    am  gear  carb hp_average
   <dbl> <dbl> <dbl> <dbl> <dbl> <dbl> <dbl> <dbl> <dbl> <dbl> <dbl>      <dbl>
 1  21       6  160    110  3.9   2.62  16.5     0     1     4     4      122. 
 2  21       6  160    110  3.9   2.88  17.0     0     1     4     4      122. 
 3  22.8     4  108     93  3.85  2.32  18.6     1     1     4     1       82.6
 4  21.4     6  258    110  3.08  3.22  19.4     1     0     3     1      122. 
 5  18.7     8  360    175  3.15  3.44  17.0     0     0     3     2      209. 
 6  18.1     6  225    105  2.76  3.46  20.2     1     0     3     1      122. 
 7  14.3     8  360    245  3.21  3.57  15.8     0     0     3     4      209. 
 8  24.4     4  147.    62  3.69  3.19  20       1     0     4     2       82.6
 9  22.8     4  141.    95  3.92  3.15  22.9     1     0     4     2       82.6
10  19.2     6  168.   123  3.92  3.44  18.3     1     0     4     4      122. 
# ℹ 22 more rows

You might notice that it’s getting a little difficult to read! This is where the “pipe” operator comes in. In older versions of R, it looks like this %>% and you have to attach the packages dplyr or magrittr to your session to use it. In R 4.1 and newer, there is a pipe built into base R, which looks like |>. The pipe makes it easier to read your code, because it takes the result of what you just ran, and passes it on to the next thing you’re going to run. Our same operation looks like this using the pipe:

mtcars |>                           # take the dataset and pass it forward
  group_by(cyl) |>                  # group the dataset by cyl and pass it forward
  mutate(hp_average = mean(hp)) |>  # calculate the mean horsepower
  ungroup()                          # ungroup the dataset and print the result

# A tibble: 32 × 12
     mpg   cyl  disp    hp  drat    wt  qsec    vs    am  gear  carb hp_average
   <dbl> <dbl> <dbl> <dbl> <dbl> <dbl> <dbl> <dbl> <dbl> <dbl> <dbl>      <dbl>
 1  21       6  160    110  3.9   2.62  16.5     0     1     4     4      122. 
 2  21       6  160    110  3.9   2.88  17.0     0     1     4     4      122. 
 3  22.8     4  108     93  3.85  2.32  18.6     1     1     4     1       82.6
 4  21.4     6  258    110  3.08  3.22  19.4     1     0     3     1      122. 
 5  18.7     8  360    175  3.15  3.44  17.0     0     0     3     2      209. 
 6  18.1     6  225    105  2.76  3.46  20.2     1     0     3     1      122. 
 7  14.3     8  360    245  3.21  3.57  15.8     0     0     3     4      209. 
 8  24.4     4  147.    62  3.69  3.19  20       1     0     4     2       82.6
 9  22.8     4  141.    95  3.92  3.15  22.9     1     0     4     2       82.6
10  19.2     6  168.   123  3.92  3.44  18.3     1     0     4     4      122. 
# ℹ 22 more rows
…
